EESchema Schematic File Version 4
EELAYER 30 0
EELAYER END
$Descr A4 11693 8268
encoding utf-8
Sheet 4 5
Title ""
Date ""
Rev ""
Comp ""
Comment1 ""
Comment2 ""
Comment3 ""
Comment4 ""
$EndDescr
Text HLabel 6100 3600 2    50   Input ~ 0
SDA
Text HLabel 6100 3500 2    50   Input ~ 0
SCL
Text HLabel 6100 4800 2    50   Input ~ 0
POT_SHDN
Text HLabel 7000 2600 2    50   Input ~ 0
POT_SDO
Text HLabel 7000 2500 2    50   Input ~ 0
POT_SDI
Text HLabel 7000 2400 2    50   Input ~ 0
POT_SCK
$Comp
L MCU_Microchip_ATmega:ATmega32U4-AU U3
U 1 1 6041B367
P 5500 3800
F 0 "U3" H 5500 1911 50  0000 C CNN
F 1 "ATmega32U4-AU" H 5500 1820 50  0000 C CNN
F 2 "Package_QFP:TQFP-44_10x10mm_P0.8mm" H 5500 3800 50  0001 C CIN
F 3 "http://ww1.microchip.com/downloads/en/DeviceDoc/Atmel-7766-8-bit-AVR-ATmega16U4-32U4_Datasheet.pdf" H 5500 3800 50  0001 C CNN
	1    5500 3800
	1    0    0    -1  
$EndComp
$Comp
L Device:R R7
U 1 1 6041EA4D
P 3350 3300
F 0 "R7" V 3143 3300 50  0000 C CNN
F 1 "22R" V 3234 3300 50  0000 C CNN
F 2 "Resistor_SMD:R_0805_2012Metric_Pad1.20x1.40mm_HandSolder" V 3280 3300 50  0001 C CNN
F 3 "~" H 3350 3300 50  0001 C CNN
	1    3350 3300
	0    1    1    0   
$EndComp
$Comp
L Device:R R6
U 1 1 60434BE9
P 3050 3400
F 0 "R6" V 3250 3400 50  0000 C CNN
F 1 "22R" V 3150 3400 50  0000 C CNN
F 2 "Resistor_SMD:R_0805_2012Metric_Pad1.20x1.40mm_HandSolder" V 2980 3400 50  0001 C CNN
F 3 "~" H 3050 3400 50  0001 C CNN
	1    3050 3400
	0    1    1    0   
$EndComp
$Comp
L Device:C C9
U 1 1 60435C31
P 4500 4500
F 0 "C9" H 4615 4546 50  0000 L CNN
F 1 "1uF" H 4615 4455 50  0000 L CNN
F 2 "Capacitor_SMD:C_0805_2012Metric_Pad1.18x1.45mm_HandSolder" H 4538 4350 50  0001 C CNN
F 3 "~" H 4500 4500 50  0001 C CNN
	1    4500 4500
	1    0    0    -1  
$EndComp
$Comp
L Device:C C8
U 1 1 60436B74
P 4000 5000
F 0 "C8" H 3886 4954 50  0000 R CNN
F 1 "0.1uF" H 3886 5045 50  0000 R CNN
F 2 "Capacitor_SMD:C_0805_2012Metric_Pad1.18x1.45mm_HandSolder" H 4038 4850 50  0001 C CNN
F 3 "~" H 4000 5000 50  0001 C CNN
	1    4000 5000
	1    0    0    1   
$EndComp
Wire Wire Line
	5400 5600 5500 5600
Wire Wire Line
	5500 5600 6000 5600
Wire Wire Line
	6000 5600 6000 6000
Connection ~ 5500 5600
$Comp
L power:GND #PWR010
U 1 1 60437A3D
P 6000 6000
F 0 "#PWR010" H 6000 5750 50  0001 C CNN
F 1 "GND" H 6005 5827 50  0000 C CNN
F 2 "" H 6000 6000 50  0001 C CNN
F 3 "" H 6000 6000 50  0001 C CNN
	1    6000 6000
	1    0    0    -1  
$EndComp
Wire Wire Line
	5400 5600 4500 5600
Wire Wire Line
	4500 5600 4500 4650
Connection ~ 5400 5600
Wire Wire Line
	4500 5600 4000 5600
Wire Wire Line
	4000 5600 4000 5150
Connection ~ 4500 5600
Wire Wire Line
	4900 2900 4000 2900
Wire Wire Line
	4500 4350 4500 3600
Wire Wire Line
	4500 3600 4900 3600
$Comp
L power:VDD #PWR08
U 1 1 60438D12
P 3750 3100
F 0 "#PWR08" H 3750 2950 50  0001 C CNN
F 1 "VDD" H 3765 3273 50  0000 C CNN
F 2 "" H 3750 3100 50  0001 C CNN
F 3 "" H 3750 3100 50  0001 C CNN
	1    3750 3100
	1    0    0    -1  
$EndComp
Wire Wire Line
	4900 3100 3750 3100
$Comp
L Device:Crystal Y1
U 1 1 60439DAB
P 3500 2600
F 0 "Y1" V 3546 2469 50  0000 R CNN
F 1 "16MHz" V 3455 2469 50  0000 R CNN
F 2 "Crystal:Crystal_SMD_HC49-SD" H 3500 2600 50  0001 C CNN
F 3 "~" H 3500 2600 50  0001 C CNN
	1    3500 2600
	0    -1   -1   0   
$EndComp
Wire Wire Line
	4900 2700 4600 2700
Wire Wire Line
	4600 2700 4600 2750
Wire Wire Line
	4600 2750 3500 2750
Wire Wire Line
	4900 2500 4600 2500
Wire Wire Line
	4600 2500 4600 2450
Wire Wire Line
	4600 2450 3500 2450
$Comp
L Device:C C6
U 1 1 6043C040
P 3000 2450
F 0 "C6" V 3252 2450 50  0000 C CNN
F 1 "0.1uF" V 3161 2450 50  0000 C CNN
F 2 "Capacitor_SMD:C_0805_2012Metric_Pad1.18x1.45mm_HandSolder" H 3038 2300 50  0001 C CNN
F 3 "~" H 3000 2450 50  0001 C CNN
	1    3000 2450
	0    1    -1   0   
$EndComp
$Comp
L Device:C C7
U 1 1 6043ECE5
P 3000 2750
F 0 "C7" V 2750 2750 50  0000 C CNN
F 1 "0.1uF" V 2850 2750 50  0000 C CNN
F 2 "Capacitor_SMD:C_0805_2012Metric_Pad1.18x1.45mm_HandSolder" H 3038 2600 50  0001 C CNN
F 3 "~" H 3000 2750 50  0001 C CNN
	1    3000 2750
	0    1    -1   0   
$EndComp
Wire Wire Line
	3500 2750 3150 2750
Connection ~ 3500 2750
Wire Wire Line
	3150 2450 3500 2450
Connection ~ 3500 2450
$Comp
L power:GND #PWR06
U 1 1 60441EB7
P 2500 2750
F 0 "#PWR06" H 2500 2500 50  0001 C CNN
F 1 "GND" H 2505 2577 50  0000 C CNN
F 2 "" H 2500 2750 50  0001 C CNN
F 3 "" H 2500 2750 50  0001 C CNN
	1    2500 2750
	1    0    0    -1  
$EndComp
Wire Wire Line
	2850 2450 2850 2750
Wire Wire Line
	2850 2750 2500 2750
Connection ~ 2850 2750
Text HLabel 6100 5100 2    50   Input ~ 0
VIN_Y
Text HLabel 6100 5200 2    50   Input ~ 0
VIN_X
$Comp
L Connector_Generic:Conn_01x06 J4
U 1 1 603936C3
P 8800 1700
F 0 "J4" H 8718 2117 50  0000 C CNN
F 1 "ICSP" H 8718 2026 50  0000 C CNN
F 2 "Connector_PinHeader_2.54mm:PinHeader_1x06_P2.54mm_Vertical" H 8800 1700 50  0001 C CNN
F 3 "~" H 8800 1700 50  0001 C CNN
	1    8800 1700
	-1   0    0    -1  
$EndComp
$Comp
L power:VDD #PWR013
U 1 1 60398E8B
P 10000 1600
F 0 "#PWR013" H 10000 1450 50  0001 C CNN
F 1 "VDD" H 10015 1773 50  0000 C CNN
F 2 "" H 10000 1600 50  0001 C CNN
F 3 "" H 10000 1600 50  0001 C CNN
	1    10000 1600
	1    0    0    -1  
$EndComp
$Comp
L power:GND #PWR014
U 1 1 603996B5
P 10000 2000
F 0 "#PWR014" H 10000 1750 50  0001 C CNN
F 1 "GND" H 10005 1827 50  0000 C CNN
F 2 "" H 10000 2000 50  0001 C CNN
F 3 "" H 10000 2000 50  0001 C CNN
	1    10000 2000
	1    0    0    -1  
$EndComp
Wire Wire Line
	9000 2000 10000 2000
Wire Wire Line
	10000 1600 9000 1600
Text Label 9250 1500 0    50   ~ 0
ICSP_MISO
Text Label 9250 1700 0    50   ~ 0
ICSP_SCK
Text Label 9250 1800 0    50   ~ 0
ICSP_MOSI
Text Label 9250 1900 0    50   ~ 0
ICSP_RST
Wire Wire Line
	9250 1500 9000 1500
Wire Wire Line
	9000 1700 9250 1700
Wire Wire Line
	9000 1800 9250 1800
Wire Wire Line
	9000 1900 9250 1900
$Comp
L Switch:SW_Push SW1
U 1 1 603A1DAE
P 4000 2000
F 0 "SW1" H 4000 2285 50  0000 C CNN
F 1 "SW_Push" H 4000 2194 50  0000 C CNN
F 2 "Button_Switch_SMD:SW_SPST_SKQG_WithoutStem" H 4000 2200 50  0001 C CNN
F 3 "~" H 4000 2200 50  0001 C CNN
	1    4000 2000
	1    0    0    -1  
$EndComp
Wire Wire Line
	4900 2300 4700 2300
Wire Wire Line
	4700 2300 4700 2000
Wire Wire Line
	4700 2000 4200 2000
Text Label 4000 2300 0    50   ~ 0
ICSP_RST
Wire Wire Line
	4700 2300 4000 2300
Connection ~ 4700 2300
Wire Wire Line
	5400 2000 5500 2000
Connection ~ 5500 2000
Wire Wire Line
	5500 2000 5600 2000
Text HLabel 3000 4500 0    50   Input ~ 0
V_EXCITE
Wire Wire Line
	4000 2900 4000 4500
$Comp
L Device:R R8
U 1 1 603D1345
P 3500 4500
F 0 "R8" V 3707 4500 50  0000 C CNN
F 1 "0R" V 3616 4500 50  0000 C CNN
F 2 "Resistor_SMD:R_0805_2012Metric_Pad1.20x1.40mm_HandSolder" V 3430 4500 50  0001 C CNN
F 3 "~" H 3500 4500 50  0001 C CNN
	1    3500 4500
	0    -1   -1   0   
$EndComp
Wire Wire Line
	3650 4500 4000 4500
Connection ~ 4000 4500
Wire Wire Line
	4000 4500 4000 4850
Wire Wire Line
	3350 4500 3000 4500
Wire Notes Line
	2500 4200 3800 4200
Wire Notes Line
	3800 4200 3800 4750
Wire Notes Line
	3800 4750 2500 4750
Wire Notes Line
	2500 4750 2500 4200
Text Notes 2500 4150 0    50   ~ 0
Jumper to use V_EXCITE as AREF\nDNP by default
Text Notes 4850 5150 1    50   ~ 0
Won't work without this capacitor
Text Label 6350 2400 0    50   ~ 0
ICSP_SCK
Text Label 6350 2600 0    50   ~ 0
ICSP_MISO
Text Label 6350 2500 0    50   ~ 0
ICSP_MOSI
Wire Wire Line
	6100 2400 7000 2400
Wire Wire Line
	7000 2500 6100 2500
Wire Wire Line
	6100 2600 7000 2600
Wire Notes Line
	8250 1000 10500 1000
Wire Notes Line
	10500 1000 10500 2500
Wire Notes Line
	10500 2500 8250 2500
Wire Notes Line
	8250 1000 8250 2500
Text Notes 8250 950  0    50   ~ 0
ICSP header for programming\n(using other arduino or ICSP programmer)
$Comp
L power:GND #PWR07
U 1 1 6040550C
P 3500 2000
F 0 "#PWR07" H 3500 1750 50  0001 C CNN
F 1 "GND" H 3505 1827 50  0000 C CNN
F 2 "" H 3500 2000 50  0001 C CNN
F 3 "" H 3500 2000 50  0001 C CNN
	1    3500 2000
	1    0    0    -1  
$EndComp
Wire Wire Line
	3800 2000 3500 2000
Wire Wire Line
	3500 3300 4900 3300
Wire Wire Line
	3200 3400 4900 3400
Text Notes 750  2700 0    50   ~ 0
Main USB connector\nFor programming & usage
Wire Notes Line
	750  4500 750  2750
Wire Notes Line
	2000 4500 750  4500
Wire Notes Line
	2000 2750 2000 4500
Wire Notes Line
	750  2750 2000 2750
Wire Wire Line
	1100 3700 1000 3700
Connection ~ 1100 3700
Wire Wire Line
	1000 3700 1000 4000
Wire Wire Line
	1200 3700 1100 3700
$Comp
L power:GND #PWR02
U 1 1 603FC4E4
P 1000 4000
F 0 "#PWR02" H 1000 3750 50  0001 C CNN
F 1 "GND" H 1005 3827 50  0000 C CNN
F 2 "" H 1000 4000 50  0001 C CNN
F 3 "" H 1000 4000 50  0001 C CNN
	1    1000 4000
	1    0    0    -1  
$EndComp
NoConn ~ 1500 3500
Wire Wire Line
	1500 3400 2900 3400
Wire Wire Line
	1500 3300 3200 3300
$Comp
L Connector:USB_B_Micro J1
U 1 1 603F4E20
P 1200 3300
F 0 "J1" H 1257 3767 50  0000 C CNN
F 1 "USB_B_Micro" H 1257 3676 50  0000 C CNN
F 2 "Connector_USB:USB_Micro-B_Molex-105017-0001" H 1350 3250 50  0001 C CNN
F 3 "~" H 1350 3250 50  0001 C CNN
	1    1200 3300
	1    0    0    -1  
$EndComp
$Comp
L power:VDD #PWR03
U 1 1 60437838
P 1750 3100
F 0 "#PWR03" H 1750 2950 50  0001 C CNN
F 1 "VDD" H 1765 3273 50  0000 C CNN
F 2 "" H 1750 3100 50  0001 C CNN
F 3 "" H 1750 3100 50  0001 C CNN
	1    1750 3100
	1    0    0    -1  
$EndComp
Wire Wire Line
	1500 3100 1750 3100
$Comp
L Device:R R9
U 1 1 60440197
P 4700 1650
F 0 "R9" H 4770 1696 50  0000 L CNN
F 1 "10K" H 4770 1605 50  0000 L CNN
F 2 "Resistor_SMD:R_0805_2012Metric_Pad1.20x1.40mm_HandSolder" V 4630 1650 50  0001 C CNN
F 3 "~" H 4700 1650 50  0001 C CNN
	1    4700 1650
	1    0    0    -1  
$EndComp
Wire Wire Line
	4700 1800 4700 2000
Connection ~ 4700 2000
Wire Wire Line
	4700 1500 5500 1500
Wire Wire Line
	5500 1500 5500 2000
Wire Wire Line
	5500 1500 5500 1250
Connection ~ 5500 1500
$Comp
L Device:C C10
U 1 1 6044C4F1
P 6500 1500
F 0 "C10" H 6386 1454 50  0000 R CNN
F 1 "0.1uF" H 6386 1545 50  0000 R CNN
F 2 "Capacitor_SMD:C_0805_2012Metric_Pad1.18x1.45mm_HandSolder" H 6538 1350 50  0001 C CNN
F 3 "~" H 6500 1500 50  0001 C CNN
	1    6500 1500
	0    1    -1   0   
$EndComp
Text Notes 6300 1350 0    50   ~ 0
Decoupling capacitor\nPlace close to IC
$Comp
L power:GND #PWR011
U 1 1 604506E5
P 7000 1750
F 0 "#PWR011" H 7000 1500 50  0001 C CNN
F 1 "GND" H 7005 1577 50  0000 C CNN
F 2 "" H 7000 1750 50  0001 C CNN
F 3 "" H 7000 1750 50  0001 C CNN
	1    7000 1750
	1    0    0    -1  
$EndComp
Wire Wire Line
	7000 1750 7000 1500
Wire Wire Line
	7000 1500 6650 1500
Wire Wire Line
	5500 1500 6350 1500
Text Notes 3750 1650 0    50   ~ 0
Reset switch
Text Notes 2450 4950 0    50   ~ 0
Arduino AREF can be set to default 5V\nor AREF pin in firmware
$Comp
L power:GND #PWR012
U 1 1 6046484D
P 7500 4400
F 0 "#PWR012" H 7500 4150 50  0001 C CNN
F 1 "GND" H 7505 4227 50  0000 C CNN
F 2 "" H 7500 4400 50  0001 C CNN
F 3 "" H 7500 4400 50  0001 C CNN
	1    7500 4400
	1    0    0    -1  
$EndComp
Wire Wire Line
	6100 4400 7500 4400
Text Notes 6150 4400 0    50   ~ 0
Pulled down to use USB bootloader
Text HLabel 6100 4700 2    50   Input ~ 0
POT_CS
Text Label 6350 2300 0    50   ~ 0
LED_RX
Wire Wire Line
	6100 2300 6350 2300
Text Label 6350 4000 0    50   ~ 0
LED_TX
Wire Wire Line
	6100 4000 6350 4000
Text Label 6350 3300 0    50   ~ 0
LED_USER1
Text Label 6350 3200 0    50   ~ 0
LED_USER2
Wire Wire Line
	6350 3200 6100 3200
Wire Wire Line
	6100 3300 6350 3300
$Comp
L Device:D D2
U 1 1 6047520A
P 9000 4000
F 0 "D2" H 9000 3783 50  0000 C CNN
F 1 "D" H 9000 3874 50  0000 C CNN
F 2 "Diode_SMD:D_0805_2012Metric_Pad1.15x1.40mm_HandSolder" H 9000 4000 50  0001 C CNN
F 3 "~" H 9000 4000 50  0001 C CNN
	1    9000 4000
	1    0    0    1   
$EndComp
$Comp
L Device:R R10
U 1 1 60475BAF
P 9500 4000
F 0 "R10" V 9293 4000 50  0000 C CNN
F 1 "330R" V 9384 4000 50  0000 C CNN
F 2 "Resistor_SMD:R_0805_2012Metric_Pad1.20x1.40mm_HandSolder" V 9430 4000 50  0001 C CNN
F 3 "~" H 9500 4000 50  0001 C CNN
	1    9500 4000
	0    1    1    0   
$EndComp
Wire Wire Line
	9150 4000 9350 4000
Wire Wire Line
	9650 4000 10000 4000
Wire Wire Line
	8850 4000 8500 4000
$Comp
L Device:D D3
U 1 1 6047D467
P 9000 4500
F 0 "D3" H 9000 4283 50  0000 C CNN
F 1 "D" H 9000 4374 50  0000 C CNN
F 2 "Diode_SMD:D_0805_2012Metric_Pad1.15x1.40mm_HandSolder" H 9000 4500 50  0001 C CNN
F 3 "~" H 9000 4500 50  0001 C CNN
	1    9000 4500
	1    0    0    1   
$EndComp
$Comp
L Device:R R11
U 1 1 6047D46D
P 9500 4500
F 0 "R11" V 9293 4500 50  0000 C CNN
F 1 "330R" V 9384 4500 50  0000 C CNN
F 2 "Resistor_SMD:R_0805_2012Metric_Pad1.20x1.40mm_HandSolder" V 9430 4500 50  0001 C CNN
F 3 "~" H 9500 4500 50  0001 C CNN
	1    9500 4500
	0    1    1    0   
$EndComp
Wire Wire Line
	9150 4500 9350 4500
Wire Wire Line
	9650 4500 10000 4500
Wire Wire Line
	8850 4500 8500 4500
$Comp
L Device:D D4
U 1 1 6047F593
P 9000 5000
F 0 "D4" H 9000 4783 50  0000 C CNN
F 1 "D" H 9000 4874 50  0000 C CNN
F 2 "Diode_SMD:D_0805_2012Metric_Pad1.15x1.40mm_HandSolder" H 9000 5000 50  0001 C CNN
F 3 "~" H 9000 5000 50  0001 C CNN
	1    9000 5000
	1    0    0    1   
$EndComp
$Comp
L Device:R R12
U 1 1 6047F599
P 9500 5000
F 0 "R12" V 9293 5000 50  0000 C CNN
F 1 "330R" V 9384 5000 50  0000 C CNN
F 2 "Resistor_SMD:R_0805_2012Metric_Pad1.20x1.40mm_HandSolder" V 9430 5000 50  0001 C CNN
F 3 "~" H 9500 5000 50  0001 C CNN
	1    9500 5000
	0    1    1    0   
$EndComp
Wire Wire Line
	9150 5000 9350 5000
Wire Wire Line
	9650 5000 10000 5000
Wire Wire Line
	8850 5000 8500 5000
$Comp
L Device:D D5
U 1 1 6048442C
P 9000 5500
F 0 "D5" H 9000 5283 50  0000 C CNN
F 1 "D" H 9000 5374 50  0000 C CNN
F 2 "Diode_SMD:D_0805_2012Metric_Pad1.15x1.40mm_HandSolder" H 9000 5500 50  0001 C CNN
F 3 "~" H 9000 5500 50  0001 C CNN
	1    9000 5500
	1    0    0    1   
$EndComp
$Comp
L Device:R R13
U 1 1 60484432
P 9500 5500
F 0 "R13" V 9293 5500 50  0000 C CNN
F 1 "330R" V 9384 5500 50  0000 C CNN
F 2 "Resistor_SMD:R_0805_2012Metric_Pad1.20x1.40mm_HandSolder" V 9430 5500 50  0001 C CNN
F 3 "~" H 9500 5500 50  0001 C CNN
	1    9500 5500
	0    1    1    0   
$EndComp
Wire Wire Line
	9150 5500 9350 5500
Wire Wire Line
	9650 5500 10000 5500
Wire Wire Line
	8850 5500 8500 5500
Text Label 8500 4000 0    50   ~ 0
LED_TX
Text Label 8500 4500 0    50   ~ 0
LED_RX
Text Label 8500 5000 0    50   ~ 0
LED_USER1
Text Label 8500 5500 0    50   ~ 0
LED_USER2
$Comp
L power:VDD #PWR015
U 1 1 60492DAA
P 10000 3750
F 0 "#PWR015" H 10000 3600 50  0001 C CNN
F 1 "VDD" H 10015 3923 50  0000 C CNN
F 2 "" H 10000 3750 50  0001 C CNN
F 3 "" H 10000 3750 50  0001 C CNN
	1    10000 3750
	1    0    0    -1  
$EndComp
Wire Wire Line
	10000 3750 10000 4000
Connection ~ 10000 4000
Wire Wire Line
	10000 4000 10000 4500
Connection ~ 10000 4500
Wire Wire Line
	10000 4500 10000 5000
Connection ~ 10000 5000
Wire Wire Line
	10000 5000 10000 5500
Wire Notes Line
	8250 3250 10250 3250
Wire Notes Line
	10250 3250 10250 5800
Wire Notes Line
	10250 5800 8250 5800
Wire Notes Line
	8250 5800 8250 3250
Text Notes 8250 3200 0    50   ~ 0
LED indicators\nTX (DNP): Serial transmit\nRX (DNP): Serial receive\nUSER1: Arduino pin 13\nUSER2: Arduino pin 5
Text HLabel 6100 3900 2    50   Input ~ 0
INT_OUT
Text Notes 1000 5300 0    50   ~ 0
Mode jumper to select whether arduino\nshould run or just sleep (or something else)\nDNP by default
$Comp
L power:VDD #PWR09
U 1 1 60446CDF
P 5500 1250
F 0 "#PWR09" H 5500 1100 50  0001 C CNN
F 1 "VDD" H 5515 1423 50  0000 C CNN
F 2 "" H 5500 1250 50  0001 C CNN
F 3 "" H 5500 1250 50  0001 C CNN
	1    5500 1250
	1    0    0    -1  
$EndComp
Text Label 6350 4500 0    50   ~ 0
MODE_SELECT
Wire Wire Line
	6100 4500 6350 4500
Text Label 2000 6100 0    50   ~ 0
MODE_SELECT
$Comp
L Connector_Generic:Conn_01x03 J9
U 1 1 6054B724
P 1300 6100
F 0 "J9" H 1218 5775 50  0000 C CNN
F 1 "MODE SELECT" H 1218 5866 50  0000 C CNN
F 2 "Connector_PinHeader_2.54mm:PinHeader_1x03_P2.54mm_Vertical" H 1300 6100 50  0001 C CNN
F 3 "~" H 1300 6100 50  0001 C CNN
	1    1300 6100
	-1   0    0    1   
$EndComp
Wire Wire Line
	1500 6100 2000 6100
$Comp
L power:VDD #PWR04
U 1 1 6054E763
P 2000 5850
F 0 "#PWR04" H 2000 5700 50  0001 C CNN
F 1 "VDD" H 2015 6023 50  0000 C CNN
F 2 "" H 2000 5850 50  0001 C CNN
F 3 "" H 2000 5850 50  0001 C CNN
	1    2000 5850
	1    0    0    -1  
$EndComp
$Comp
L power:GND #PWR05
U 1 1 6054EF51
P 2000 6350
F 0 "#PWR05" H 2000 6100 50  0001 C CNN
F 1 "GND" H 2005 6177 50  0000 C CNN
F 2 "" H 2000 6350 50  0001 C CNN
F 3 "" H 2000 6350 50  0001 C CNN
	1    2000 6350
	1    0    0    -1  
$EndComp
Wire Wire Line
	1500 6000 2000 6000
Wire Wire Line
	2000 6000 2000 5850
Wire Wire Line
	1500 6200 2000 6200
Wire Wire Line
	2000 6200 2000 6350
Wire Notes Line
	1000 5350 2750 5350
Wire Notes Line
	2750 5350 2750 6850
Wire Notes Line
	2750 6850 1000 6850
Wire Notes Line
	1000 6850 1000 5350
NoConn ~ 6100 2800
NoConn ~ 6100 2900
NoConn ~ 6100 3700
NoConn ~ 6100 3800
NoConn ~ 6100 4100
NoConn ~ 6100 4200
NoConn ~ 6100 4900
NoConn ~ 6100 5000
NoConn ~ 6100 2700
NoConn ~ 6100 3000
$EndSCHEMATC
